12 0.08263888888888889 0.3746875 0.1486111111111111 0.201875
4 0.08263888888888889 0.3228125 0.09305555555555556 0.041875
11 0.08263888888888889 0.3646875 0.09305555555555556 0.041875
4 0.08263888888888889 0.4065625 0.09305555555555556 0.041875
2 0.08263888888888889 0.4484375 0.09305555555555556 0.041875
12 0.24930555555555556 0.3746875 0.1486111111111111 0.201875
0 0.24930555555555556 0.3228125 0.09305555555555556 0.041875
8 0.24930555555555556 0.3646875 0.09305555555555556 0.041875
0 0.24930555555555556 0.4065625 0.09305555555555556 0.041875
1 0.24930555555555556 0.4484375 0.09305555555555556 0.041875
12 0.41597222222222224 0.3746875 0.1486111111111111 0.201875
2 0.41597222222222224 0.3228125 0.09305555555555556 0.041875
3 0.41597222222222224 0.3646875 0.09305555555555556 0.041875
11 0.41597222222222224 0.4065625 0.09305555555555556 0.041875
8 0.41597222222222224 0.4484375 0.09305555555555556 0.041875
12 0.5826388888888889 0.3746875 0.1486111111111111 0.201875
1 0.5826388888888889 0.3228125 0.09305555555555556 0.041875
8 0.5826388888888889 0.3646875 0.09305555555555556 0.041875
3 0.5826388888888889 0.4065625 0.09305555555555556 0.041875
1 0.5826388888888889 0.4484375 0.09305555555555556 0.041875
12 0.7493055555555556 0.3746875 0.1486111111111111 0.201875
4 0.7493055555555556 0.3228125 0.09305555555555556 0.041875
1 0.7493055555555556 0.3646875 0.09305555555555556 0.041875
9 0.7493055555555556 0.4065625 0.09305555555555556 0.041875
2 0.7493055555555556 0.4484375 0.09305555555555556 0.041875
12 0.9159722222222222 0.3746875 0.1486111111111111 0.201875
3 0.9159722222222222 0.3228125 0.09305555555555556 0.041875
2 0.9159722222222222 0.3646875 0.09305555555555556 0.041875
10 0.9159722222222222 0.4065625 0.09305555555555556 0.041875
0 0.9159722222222222 0.4484375 0.09305555555555556 0.041875
12 0.16597222222222222 0.6246875 0.1486111111111111 0.201875
11 0.16597222222222222 0.5728125 0.09305555555555556 0.041875
9 0.16597222222222222 0.6146875 0.09305555555555556 0.041875
10 0.16597222222222222 0.6565625 0.09305555555555556 0.041875
3 0.16597222222222222 0.6984375 0.09305555555555556 0.041875
12 0.3326388888888889 0.6246875 0.1486111111111111 0.201875
4 0.3326388888888889 0.5728125 0.09305555555555556 0.041875
10 0.3326388888888889 0.6146875 0.09305555555555556 0.041875
10 0.3326388888888889 0.6565625 0.09305555555555556 0.041875
9 0.3326388888888889 0.6984375 0.09305555555555556 0.041875
12 0.49930555555555556 0.6246875 0.1486111111111111 0.201875
11 0.49930555555555556 0.5728125 0.09305555555555556 0.041875
0 0.49930555555555556 0.6146875 0.09305555555555556 0.041875
8 0.49930555555555556 0.6565625 0.09305555555555556 0.041875
9 0.49930555555555556 0.6984375 0.09305555555555556 0.041875
12 0.6659722222222222 0.6246875 0.1486111111111111 0.201875
12 0.8326388888888889 0.6246875 0.1486111111111111 0.201875
