12 0.059027777777777776 0.3746875 0.1486111111111111 0.201875
4 0.059027777777777776 0.3228125 0.09305555555555556 0.041875
7 0.059027777777777776 0.3646875 0.09305555555555556 0.041875
10 0.059027777777777776 0.4065625 0.09305555555555556 0.041875
3 0.059027777777777776 0.4484375 0.09305555555555556 0.041875
12 0.20625 0.3746875 0.1486111111111111 0.201875
6 0.20625 0.3228125 0.09305555555555556 0.041875
10 0.20625 0.3646875 0.09305555555555556 0.041875
6 0.20625 0.4065625 0.09305555555555556 0.041875
9 0.20625 0.4484375 0.09305555555555556 0.041875
12 0.35347222222222224 0.3746875 0.1486111111111111 0.201875
7 0.35347222222222224 0.3228125 0.09305555555555556 0.041875
11 0.35347222222222224 0.3646875 0.09305555555555556 0.041875
7 0.35347222222222224 0.4065625 0.09305555555555556 0.041875
3 0.35347222222222224 0.4484375 0.09305555555555556 0.041875
12 0.5006944444444444 0.3746875 0.1486111111111111 0.201875
2 0.5006944444444444 0.3228125 0.09305555555555556 0.041875
11 0.5006944444444444 0.3646875 0.09305555555555556 0.041875
5 0.5006944444444444 0.4065625 0.09305555555555556 0.041875
8 0.5006944444444444 0.4484375 0.09305555555555556 0.041875
12 0.6479166666666667 0.3746875 0.1486111111111111 0.201875
2 0.6479166666666667 0.3228125 0.09305555555555556 0.041875
5 0.6479166666666667 0.3646875 0.09305555555555556 0.041875
0 0.6479166666666667 0.4065625 0.09305555555555556 0.041875
0 0.6479166666666667 0.4484375 0.09305555555555556 0.041875
12 0.7951388888888888 0.3746875 0.1486111111111111 0.201875
11 0.7951388888888888 0.3228125 0.09305555555555556 0.041875
2 0.7951388888888888 0.3646875 0.09305555555555556 0.041875
1 0.7951388888888888 0.4065625 0.09305555555555556 0.041875
3 0.7951388888888888 0.4484375 0.09305555555555556 0.041875
12 0.9423611111111111 0.3746875 0.1486111111111111 0.201875
11 0.9423611111111111 0.3228125 0.09305555555555556 0.041875
8 0.9423611111111111 0.3646875 0.09305555555555556 0.041875
4 0.9423611111111111 0.4065625 0.09305555555555556 0.041875
5 0.9423611111111111 0.4484375 0.09305555555555556 0.041875
12 0.059027777777777776 0.6246875 0.1486111111111111 0.201875
2 0.059027777777777776 0.5728125 0.09305555555555556 0.041875
0 0.059027777777777776 0.6146875 0.09305555555555556 0.041875
4 0.059027777777777776 0.6565625 0.09305555555555556 0.041875
9 0.059027777777777776 0.6984375 0.09305555555555556 0.041875
12 0.20625 0.6246875 0.1486111111111111 0.201875
10 0.20625 0.5728125 0.09305555555555556 0.041875
4 0.20625 0.6146875 0.09305555555555556 0.041875
8 0.20625 0.6565625 0.09305555555555556 0.041875
6 0.20625 0.6984375 0.09305555555555556 0.041875
12 0.35347222222222224 0.6246875 0.1486111111111111 0.201875
1 0.35347222222222224 0.5728125 0.09305555555555556 0.041875
0 0.35347222222222224 0.6146875 0.09305555555555556 0.041875
3 0.35347222222222224 0.6565625 0.09305555555555556 0.041875
1 0.35347222222222224 0.6984375 0.09305555555555556 0.041875
12 0.5006944444444444 0.6246875 0.1486111111111111 0.201875
9 0.5006944444444444 0.5728125 0.09305555555555556 0.041875
9 0.5006944444444444 0.6146875 0.09305555555555556 0.041875
1 0.5006944444444444 0.6565625 0.09305555555555556 0.041875
5 0.5006944444444444 0.6984375 0.09305555555555556 0.041875
12 0.6479166666666667 0.6246875 0.1486111111111111 0.201875
8 0.6479166666666667 0.5728125 0.09305555555555556 0.041875
7 0.6479166666666667 0.6146875 0.09305555555555556 0.041875
6 0.6479166666666667 0.6565625 0.09305555555555556 0.041875
10 0.6479166666666667 0.6984375 0.09305555555555556 0.041875
12 0.7951388888888888 0.6246875 0.1486111111111111 0.201875
12 0.9423611111111111 0.6246875 0.1486111111111111 0.201875
